Générer un rapport d'analyses • firstlibdaniel
…
summary_commune(commune_data)
#> Resume de la commune :
#> Nom de la commune : Nantes 
#> Nombre total d'elus : 66 
#> 
#> Repartition professionnelle :
#> # A tibble: 25 × 2
#>    Code.de.la.categorie.socio.professionnelle     n
#>                                         <dbl> <int>
#>  1                                         11     1
#>  2                                         13     1
#>  3                                         21     1
#>  4                                         22     2
#>  5                                         23     2
#>  6                                         31     6
#>  7                                         33     8
#>  8                                         34     4
#>  9                                         35     5
#> 10                                         37    11
#> # ℹ 15 more rows
…
